{
    "data": [
        {
            "title": "M 531 201",
            "startMY": 2005,
            "endMY": 2007,
            "adjustment": {
                "label": "2-way",
                "value": "2-way",
                "selected": true
            },
            "chassis": "GG/GD 2,5 WRX - PCD: 5 x 114,3",
            "product": "Test internal 2 way",
            "make": {
                "label": "Subaru",
                "value": "Subaru",
                "selected": true
            },
            "model": "Impreza",
            "system": {
                "label": "Coil Over",
                "value": "Coil Over",
                "selected": true
            },
            "url": "https://test.com/products/m-531-201"
        },
        {
            "title": "M 532 206",
            "startMY": 2008,
            "endMY": 2013,
            "adjustment": {
                "label": "2-way",
                "value": "2-way",
                "selected": true
            },
            "chassis": "MK6 5K",
            "product": "Test internal 2 way",
            "make": {
                "label": "VW",
                "value": "VW",
                "selected": true
            },
            "model": "Golf",
            "system": {
                "label": "Coil Over",
                "value": "Coil Over",
                "selected": true
            },
            "url": "https://test.com/products/m-532-206-2"
        },
        {
            "title": "M 531 200",
            "startMY": 2003,
            "endMY": 2007,
            "adjustment": {
                "label": "2-way",
                "value": "2-way",
                "selected": true
            },
            "chassis": "GG/GD 2,5 - PCD: 5 x 100",
            "product": "Test internal 2 way",
            "make": {
                "label": "Subaru",
                "value": "Subaru",
                "selected": true
            },
            "model": "Impreza",
            "system": {
                "label": "Coil Over",
                "value": "Coil Over",
                "selected": true
            },
            "url": "https://test.com/products/m-531-200-1"
        },
        {
            "title": "M 505 156",
            "startMY": 1998,
            "endMY": 2006,
            "adjustment": {
                "label": "3-way",
                "value": "3-way",
                "selected": true
            },
            "chassis": "E46 M3 Coupe",
            "product": "Test 3 way",
            "make": {
                "label": "BMW",
                "value": "BMW",
                "selected": true
            },
            "model": "3 series",
            "system": {
                "label": "Separate Set up",
                "value": "Separate Set up",
                "selected": true
            },
            "url": "https://test.com/products/m-505-156"
        },
        {
            "title": "M 505 181",
            "startMY": 2006,
            "endMY": 2008,
            "adjustment": {
                "label": "2-way",
                "value": "2-way",
                "selected": true
            },
            "chassis": "E85/E86 M",
            "product": "Test internal 2 way",
            "make": {
                "label": "BMW",
                "value": "BMW",
                "selected": true
            },
            "model": "Z4",
            "system": {
                "label": "Coil Over",
                "value": "Coil Over",
                "selected": true
            },
            "url": "https://test.com/products/m-505-181"
        },
        {
            "title": "M 505 157",
            "startMY": 1998,
            "endMY": 2006,
            "adjustment": {
                "label": "3-way",
                "value": "3-way",
                "selected": true
            },
            "chassis": "E46 M3 Coupe",
            "product": "Test 3 way",
            "make": {
                "label": "BMW",
                "value": "BMW",
                "selected": true
            },
            "model": "3 series",
            "system": {
                "label": "Separate Set up",
                "value": "Separate Set up",
                "selected": true
            },
            "url": "https://test.com/products/m-505-157"
        },
        {
            "title": "M 526 200",
            "startMY": 2001,
            "endMY": 2005,
            "adjustment": {
                "label": "2-way",
                "value": "2-way",
                "selected": true
            },
            "chassis": "7.8",
            "product": "Test internal 2 way",
            "make": {
                "label": "Mitsubishi",
                "value": "Mitsubishi",
                "selected": true
            },
            "model": "EVO",
            "system": {
                "label": "Coil Over",
                "value": "Coil Over",
                "selected": true
            },
            "url": "https://test.com/products/m-526-200"
        },
        {
            "title": "M 532 206",
            "startMY": 2004,
            "endMY": 2013,
            "adjustment": {
                "label": "2-way",
                "value": "2-way",
                "selected": true
            },
            "chassis": "8PI",
            "product": "Test internal 2 way",
            "make": {
                "label": "Audi",
                "value": "Audi",
                "selected": true
            },
            "model": "A3",
            "system": {
                "label": "Coil Over",
                "value": "Coil Over",
                "selected": true
            },
            "url": "https://test.com/products/m-532-206"
        },
        {
            "title": "M 526 208",
            "startMY": 2005,
            "endMY": 2008,
            "adjustment": {
                "label": "2-way",
                "value": "2-way",
                "selected": true
            },
            "chassis": "9",
            "product": "Test internal 2 way",
            "make": {
                "label": "Mitsubishi",
                "value": "Mitsubishi",
                "selected": true
            },
            "model": "EVO",
            "system": {
                "label": "Coil Over",
                "value": "Coil Over",
                "selected": true
            },
            "url": "https://test.com/products/m-526-208"
        },
        {
            "title": "M 532 206",
            "startMY": 2006,
            "endMY": 2014,
            "adjustment": {
                "label": "2-way",
                "value": "2-way",
                "selected": true
            },
            "chassis": "8J",
            "product": "Test internal 2 way",
            "make": {
                "label": "Audi",
                "value": "Audi",
                "selected": true
            },
            "model": "TT",
            "system": {
                "label": "Coil Over",
                "value": "Coil Over",
                "selected": true
            },
            "url": "https://test.com/products/m-532-206-1"
        },
        {
            "title": "M 526 202",
            "startMY": 2007,
            "endMY": 2015,
            "adjustment": {
                "label": "2-way",
                "value": "2-way",
                "selected": true
            },
            "chassis": "10",
            "product": "Test internal 2 way",
            "make": {
                "label": "Mitsubishi",
                "value": "Mitsubishi",
                "selected": true
            },
            "model": "EVO",
            "system": {
                "label": "Coil Over",
                "value": "Coil Over",
                "selected": true
            },
            "url": "https://test.com/products/m-526-202"
        },
        {
            "title": "M 511 022",
            "startMY": 2006,
            "endMY": 2014,
            "adjustment": {
                "label": "3-way",
                "value": "3-way",
                "selected": true
            },
            "chassis": "8J",
            "product": "Test 3 way",
            "make": {
                "label": "Audi",
                "value": "Audi",
                "selected": true
            },
            "model": "TT",
            "system": {
                "label": "Coil Over",
                "value": "Coil Over",
                "selected": true
            },
            "url": "https://test.com/products/m-511-022-6"
        },
        {
            "title": "M 505 171",
            "startMY": 1984,
            "endMY": 1991,
            "adjustment": {
                "label": "2-way",
                "value": "2-way",
                "selected": true
            },
            "chassis": "E30",
            "product": "Test internal 2 way",
            "make": {
                "label": "BMW",
                "value": "BMW",
                "selected": true
            },
            "model": "3 series",
            "system": {
                "label": "Coil Over",
                "value": "Coil Over",
                "selected": true
            },
            "url": "https://test.com/products/m-505-171"
        },
        {
            "title": "M 502 220",
            "startMY": 1995,
            "endMY": 1999,
            "adjustment": {
                "label": "2-way",
                "value": "2-way",
                "selected": true
            },
            "chassis": "S14/S15",
            "product": "Test internal 2 way",
            "make": {
                "label": "Nissan",
                "value": "Nissan",
                "selected": true
            },
            "model": "200/240 SX",
            "system": {
                "label": "Coil Over",
                "value": "Coil Over",
                "selected": true
            },
            "url": "https://test.com/products/m-502-220"
        },
        {
            "title": "M 505 142",
            "startMY": 2007,
            "endMY": 2013,
            "adjustment": {
                "label": "3-way",
                "value": "3-way",
                "selected": true
            },
            "chassis": "E81 / E82 / E87 / E88",
            "product": "Test 3 way",
            "make": {
                "label": "BMW",
                "value": "BMW",
                "selected": true
            },
            "model": "1 series",
            "system": {
                "label": "Separate Set up",
                "value": "Separate Set up",
                "selected": true
            },
            "url": "https://test.com/products/m-505-142"
        },
        {
            "title": "M 505 180",
            "startMY": 1986,
            "endMY": 1990,
            "adjustment": {
                "label": "2-way",
                "value": "2-way",
                "selected": true
            },
            "chassis": "E30 M3",
            "product": "Test internal 2 way",
            "make": {
                "label": "BMW",
                "value": "BMW",
                "selected": true
            },
            "model": "3 series",
            "system": {
                "label": "Coil Over",
                "value": "Coil Over",
                "selected": true
            },
            "url": "https://test.com/products/m-505-180"
        },
        {
            "title": "M 500 152",
            "startMY": 2005,
            "endMY": 2012,
            "adjustment": {
                "label": "2-way",
                "value": "2-way",
                "selected": true
            },
            "chassis": "987",
            "product": "Test internal 2 way",
            "make": {
                "label": "Porsche",
                "value": "Porsche",
                "selected": true
            },
            "model": "Boxter/Cayman",
            "system": {
                "label": "Coil Over",
                "value": "Coil Over",
                "selected": true
            },
            "url": "https://test.com/products/m-500-152"
        },
        {
            "title": "M 505 141",
            "startMY": 1998,
            "endMY": 2006,
            "adjustment": {
                "label": "3-way",
                "value": "3-way",
                "selected": true
            },
            "chassis": "E46 M3 Coupe",
            "product": "Test 3 way",
            "make": {
                "label": "BMW",
                "value": "BMW",
                "selected": true
            },
            "model": "3 series",
            "system": {
                "label": "Separate Set up",
                "value": "Separate Set up",
                "selected": true
            },
            "url": "https://test.com/products/m-505-141"
        },
        {
            "title": "M 505 173",
            "startMY": 1992,
            "endMY": 1995,
            "adjustment": {
                "label": "2-way",
                "value": "2-way",
                "selected": true
            },
            "chassis": "E36 M3",
            "product": "Test internal 2 way",
            "make": {
                "label": "BMW",
                "value": "BMW",
                "selected": true
            },
            "model": "3 series",
            "system": {
                "label": "Coil Over",
                "value": "Coil Over",
                "selected": true
            },
            "url": "https://test.com/products/m-505-173"
        },
        {
            "title": "M 531 200",
            "startMY": 2008,
            "endMY": 2013,
            "adjustment": {
                "label": "2-way",
                "value": "2-way",
                "selected": true
            },
            "chassis": "GE/GH/GR/GV WRX - PCD: 5 x 100",
            "product": "Test internal 2 way",
            "make": {
                "label": "Subaru",
                "value": "Subaru",
                "selected": true
            },
            "model": "Impreza",
            "system": {
                "label": "Coil Over",
                "value": "Coil Over",
                "selected": true
            },
            "url": "https://test.com/products/m-531-200"
        }
    ],
    "meta": {
        "pagination": {
            "total": 692,
            "count": 20,
            "per_page": 20,
            "current_page": 1,
            "total_pages": 35,
            "links": {
                "next": "https://test.com/api/search?page=2"
            }
        }
    }
}
